<svg width="30px" height="30px" viewBox="0 0 24 24" fill="none" xmlns="http://www.w3.org/2000/svg">
<path d="M9.11297 8.80009C9.45238 8.50289 9.85738 8.27432 10.3033 8.13877L10.5504 8.07424L10.7103 8.04335L10.8858 8.01892L11.0656 8.00389L11.25 7.99875H18.75C20.483 7.99875 21.8992 9.3552 21.9949 11.0643L22 11.2487V18.7487C22 20.4818 20.6435 21.898 18.9344 21.9936L18.75 21.9987H11.25C9.51697 21.9987 8.10075 20.6423 8.00515 18.9332L8 18.7487V11.2487L8.00332 11.1005L8.01742 10.9102L8.04299 10.7188L8.07897 10.5334L8.13766 10.3099L8.21895 10.0736L8.30497 9.87239L8.38656 9.71013L8.48081 9.54668L8.62681 9.32969L8.7213 9.20696L8.85601 9.0507L8.9638 8.93881L9.11297 8.80009ZM15 11C14.6203 11 14.3065 11.2822 14.2568 11.6482L14.25 11.75V14.2487H11.75C11.3703 14.2487 11.0565 14.5309 11.0068 14.897L11 14.9987C11 15.3784 11.2822 15.6922 11.6482 15.7419L11.75 15.7487H14.25V18.25C14.25 18.6297 14.5322 18.9435 14.8982 18.9932L15 19C15.3797 19 15.6935 18.7178 15.7432 18.3518L15.75 18.25V15.7487H18.25C18.6297 15.7487 18.9435 15.4666 18.9932 15.1005L19 14.9987C19 14.6191 18.7178 14.3053 18.3518 14.2556L18.25 14.2487H15.75V11.75C15.75 11.3703 15.4678 11.0565 15.1018 11.0068L15 11ZM15.5818 4.23284L15.6345 4.40964L16.328 6.998L11.25 6.99875C8.90279 6.99875 7 8.90154 7 11.2487L7.00056 17.6816C5.69932 17.6051 4.52962 16.7445 4.10539 15.4544L4.05269 15.2776L2.11155 8.03311C1.66301 6.35913 2.6067 4.6401 4.23284 4.10539L4.40964 4.05269L11.6541 2.11155C13.3281 1.66301 15.0471 2.6067 15.5818 4.23284Z" fill="#3693b5"/>
</svg>
